^D:\НОВАЯ ПАПКА\CONSOLEAPPLICATION1\CONSOLEAPPLICATION1\ИСХОДНЫЙ КОД.CPP
D:\новая папка\CONSOLEAPPLICATION1\CONSOLEAPPLICATION1\DEBUG\VC120.PDB
D:\новая папка\CONSOLEAPPLICATION1\CONSOLEAPPLICATION1\DEBUG\VC120.IDB
D:\Новая папка\CONSOLEAPPLICATION1\CONSOLEAPPLICATION1\DEBUG\Исходный код.OBJ
